%YAML 1.1
%TAG !u! tag:unity3d.com,2011:
--- !u!1045 &1
EditorBuildSettings:
  m_ObjectHideFlags: 0
  serializedVersion: 2
  m_Scenes:
  - enabled: 1
    path: Assets/AV_SceneAnalysis_no_face.unity
    guid: 45dbd6a694facde419bf67bba6dba179
  m_configObjects: {}
